# Feb pos   Feb Addr   PMT pos    PMT    MAROC Gain
     A      201B64D3      2      FA0927      106
     A      201B64D3      1              
     B      5BD00500      1      FA0960      124
     B      5BD00500      2      FA0976      66
     C      D36B699B      2      FA0964      71
     C      D36B699B      1      FA0978      54
     D      7AF2432D      1      FA0970      99
     D      7AF2432D      2      FA0980      62
     E      1A065F35      2      FA0997      123
     E      1A065F35      1      FA1027      98
     F      68664262      1             
     F      68664262      2      FA0745      83
     G      29B01857      2      FA1010      103 
     G      29B01857      1      FA0884      65
     H      DFD95A4A      1      FA1026      52
     H      DFD95A4A      2      FA0962      66

